<?xml version="1.0" encoding="UTF-8" standalone="no"?>
<graphml xmlns="http://graphml.graphdrawing.org/xmlns" xmlns:java="http://www.yworks.com/xml/yfiles-common/1.0/java" xmlns:sys="http://www.yworks.com/xml/yfiles-common/markup/primitives/2.0" xmlns:x="http://www.yworks.com/xml/yfiles-common/markup/2.0" xmlns:xsi="http://www.w3.org/2001/XMLSchema-instance" xmlns:y="http://www.yworks.com/xml/graphml" xmlns:yed="http://www.yworks.com/xml/yed/3" xsi:schemaLocation="http://graphml.graphdrawing.org/xmlns http://www.yworks.com/xml/schema/graphml/1.1/ygraphml.xsd">
  <!--Created by yEd 3.15.0.1-->
  <key attr.name="Description" attr.type="string" for="graph" id="d0"/>
  <key for="port" id="d1" yfiles.type="portgraphics"/>
  <key for="port" id="d2" yfiles.type="portgeometry"/>
  <key for="port" id="d3" yfiles.type="portuserdata"/>
  <key attr.name="url" attr.type="string" for="node" id="d4"/>
  <key attr.name="description" attr.type="string" for="node" id="d5"/>
  <key for="node" id="d6" yfiles.type="nodegraphics"/>
  <key for="graphml" id="d7" yfiles.type="resources"/>
  <key attr.name="url" attr.type="string" for="edge" id="d8"/>
  <key attr.name="description" attr.type="string" for="edge" id="d9"/>
  <key for="edge" id="d10" yfiles.type="edgegraphics"/>
  <graph edgedefault="directed" id="G">
    <data key="d0"/>
    <node id="n0">
      <data key="d6">
        <y:ImageNode>
          <y:Geometry height="63.0" width="40.095298767089844" x="351.0" y="189.0"/>
          <y:Fill color="#CCCCFF" transparent="false"/>
          <y:BorderStyle color="#000000" type="line" width="1.0"/>
          <y:NodeLabel alignment="center" autoSizePolicy="content" fontFamily="Dialog" fontSize="12" fontStyle="plain" hasBackgroundColor="false" hasLineColor="false" height="48.103515625" modelName="sandwich" modelPosition="s" textColor="#000000" visible="true" width="134.048828125" x="-46.97676467895508" y="67.0">HAProxy-KeepAlived(1) 
		(ha1) 		
	</y:NodeLabel>
          <y:Image alphaImage="true" refid="1"/>
        </y:ImageNode>
      </data>
    </node>
    <node id="n1">
      <data key="d6">
        <y:ImageNode>
          <y:Geometry height="63.0" width="40.095298767089844" x="566.0" y="189.0"/>
          <y:Fill color="#CCCCFF" transparent="false"/>
          <y:BorderStyle color="#000000" type="line" width="1.0"/>
          <y:NodeLabel alignment="center" autoSizePolicy="content" fontFamily="Dialog" fontSize="12" fontStyle="plain" hasBackgroundColor="false" hasLineColor="false" height="48.103515625" modelName="sandwich" modelPosition="s" textColor="#000000" visible="true" width="134.048828125" x="-46.97676467895508" y="67.0">HAProxy-KeepAlived(2) 
		(ha2) 		
	</y:NodeLabel>
          <y:Image alphaImage="true" refid="1"/>
        </y:ImageNode>
      </data>
    </node>
    <node id="n2">
      <data key="d6">
        <y:ImageNode>
          <y:Geometry height="63.0" width="40.095298767089844" x="351.0" y="376.0"/>
          <y:Fill color="#CCCCFF" transparent="false"/>
          <y:BorderStyle color="#000000" type="line" width="1.0"/>
          <y:NodeLabel alignment="center" autoSizePolicy="content" fontFamily="Dialog" fontSize="12" fontStyle="plain" hasBackgroundColor="false" hasLineColor="false" height="92.20703125" modelName="sandwich" modelPosition="s" textColor="#000000" visible="true" width="178.03515625" x="-68.96992874145508" y="67.0"> iRedMail-LDAP(1) 
		(mail1) 
--------------------- 
                 GlusterFS                   
             sync LDAP               
MariaDB Replicate</y:NodeLabel>
          <y:Image alphaImage="true" refid="1"/>
        </y:ImageNode>
      </data>
    </node>
    <node id="n3">
      <data key="d6">
        <y:ImageNode>
          <y:Geometry height="63.0" width="40.095298767089844" x="566.0" y="376.0"/>
          <y:Fill color="#CCCCFF" transparent="false"/>
          <y:BorderStyle color="#000000" type="line" width="1.0"/>
          <y:NodeLabel alignment="center" autoSizePolicy="content" fontFamily="Dialog" fontSize="12" fontStyle="plain" hasBackgroundColor="false" hasLineColor="false" height="92.20703125" modelName="sandwich" modelPosition="s" textColor="#000000" visible="true" width="178.03515625" x="-68.96992874145508" y="67.0"> iRedMail-LDAP(2) 
		(mail1) 
--------------------- 
                 GlusterFS                   
             sync LDAP               
MariaDB Replicate</y:NodeLabel>
          <y:Image alphaImage="true" refid="1"/>
        </y:ImageNode>
      </data>
    </node>
    <node id="n4">
      <data key="d6">
        <y:SVGNode>
          <y:Geometry height="38.56999588012695" width="46.095298767089844" x="456.8013511657714" y="61.015002059936535"/>
          <y:Fill color="#CCCCFF" transparent="false"/>
          <y:BorderStyle color="#000000" type="line" width="1.0"/>
          <y:NodeLabel alignment="center" autoSizePolicy="content" fontFamily="Dialog" fontSize="12" fontStyle="plain" hasBackgroundColor="false" hasLineColor="false" hasText="false" height="4.0" modelName="custom" textColor="#000000" visible="true" width="4.0" x="21.047649383544922" y="42.56999588012695">
            <y:LabelModel>
              <y:SmartNodeLabelModel distance="4.0"/>
            </y:LabelModel>
            <y:ModelParameter>
              <y:SmartNodeLabelModelParameter labelRatioX="0.0" labelRatioY="-0.5" nodeRatioX="0.0" nodeRatioY="0.5" offsetX="0.0" offsetY="4.0" upX="0.0" upY="-1.0"/>
            </y:ModelParameter>
          </y:NodeLabel>
          <y:SVGNodeProperties usingVisualBounds="true"/>
          <y:SVGModel svgBoundsPolicy="0">
            <y:SVGContent refid="2"/>
          </y:SVGModel>
        </y:SVGNode>
      </data>
    </node>
    <node id="n5">
      <data key="d6">
        <y:SVGNode>
          <y:Geometry height="21.42080000000003" width="22.76420201110841" x="468.4668995437621" y="84.8329979400635"/>
          <y:Fill color="#CCCCFF" transparent="false"/>
          <y:BorderStyle color="#000000" type="line" width="1.0"/>
          <y:NodeLabel alignment="center" autoSizePolicy="content" fontFamily="Dialog" fontSize="12" fontStyle="plain" hasBackgroundColor="false" hasLineColor="false" hasText="false" height="4.0" modelName="custom" textColor="#000000" visible="true" width="4.0" x="9.382101005554205" y="25.420800000000042">
            <y:LabelModel>
              <y:SmartNodeLabelModel distance="4.0"/>
            </y:LabelModel>
            <y:ModelParameter>
              <y:SmartNodeLabelModelParameter labelRatioX="0.0" labelRatioY="-0.5" nodeRatioX="0.0" nodeRatioY="0.5" offsetX="0.0" offsetY="4.0" upX="0.0" upY="-1.0"/>
            </y:ModelParameter>
          </y:NodeLabel>
          <y:SVGNodeProperties usingVisualBounds="false"/>
          <y:SVGModel svgBoundsPolicy="0">
            <y:SVGContent refid="3"/>
          </y:SVGModel>
        </y:SVGNode>
      </data>
    </node>
    <node id="n6">
      <data key="d4"/>
      <data key="d6">
        <y:GenericNode configuration="com.yworks.bpmn.Activity.withShadow">
          <y:Geometry height="24.0" width="85.0" x="436.0476493835449" y="129.5849979400635"/>
          <y:Fill color="#CCFFFF" transparent="false"/>
          <y:BorderStyle color="#99CC00" type="line" width="1.0"/>
          <y:NodeLabel alignment="center" autoSizePolicy="content" fontFamily="Dialog" fontSize="12" fontStyle="plain" hasBackgroundColor="false" hasLineColor="false" height="18.701171875" modelName="custom" textColor="#000000" visible="true" width="74.06640625" x="5.466796875" y="2.6494140625">192.168.1.10<y:LabelModel>
              <y:SmartNodeLabelModel distance="4.0"/>
            </y:LabelModel>
            <y:ModelParameter>
              <y:SmartNodeLabelModelParameter labelRatioX="0.0" labelRatioY="0.0" nodeRatioX="0.0" nodeRatioY="0.0" offsetX="0.0" offsetY="0.0" upX="0.0" upY="-1.0"/>
            </y:ModelParameter>
          </y:NodeLabel>
          <y:StyleProperties>
            <y:Property class="java.awt.Color" name="com.yworks.bpmn.icon.line.color" value="#000000"/>
            <y:Property class="com.yworks.yfiles.bpmn.view.TaskTypeEnum" name="com.yworks.bpmn.taskType" value="TASK_TYPE_ABSTRACT"/>
            <y:Property class="java.awt.Color" name="com.yworks.bpmn.icon.fill2" value="#d4d4d4cc"/>
            <y:Property class="java.awt.Color" name="com.yworks.bpmn.icon.fill" value="#ffffffe6"/>
            <y:Property class="com.yworks.yfiles.bpmn.view.BPMNTypeEnum" name="com.yworks.bpmn.type" value="ACTIVITY_TYPE"/>
            <y:Property class="com.yworks.yfiles.bpmn.view.ActivityTypeEnum" name="com.yworks.bpmn.activityType" value="ACTIVITY_TYPE_TASK"/>
          </y:StyleProperties>
        </y:GenericNode>
      </data>
    </node>
    <node id="n7">
      <data key="d4"/>
      <data key="d6">
        <y:GenericNode configuration="com.yworks.bpmn.Activity.withShadow">
          <y:Geometry height="24.0" width="85.0" x="266.0" y="208.5"/>
          <y:Fill color="#CCFFFF" transparent="false"/>
          <y:BorderStyle color="#99CC00" type="line" width="1.0"/>
          <y:NodeLabel alignment="center" autoSizePolicy="content" fontFamily="Dialog" fontSize="12" fontStyle="plain" hasBackgroundColor="false" hasLineColor="false" height="18.701171875" modelName="custom" textColor="#000000" visible="true" width="67.392578125" x="8.8037109375" y="2.6494140625">192.168.1.1<y:LabelModel>
              <y:SmartNodeLabelModel distance="4.0"/>
            </y:LabelModel>
            <y:ModelParameter>
              <y:SmartNodeLabelModelParameter labelRatioX="0.0" labelRatioY="0.0" nodeRatioX="0.0" nodeRatioY="0.0" offsetX="0.0" offsetY="0.0" upX="0.0" upY="-1.0"/>
            </y:ModelParameter>
          </y:NodeLabel>
          <y:StyleProperties>
            <y:Property class="java.awt.Color" name="com.yworks.bpmn.icon.line.color" value="#000000"/>
            <y:Property class="com.yworks.yfiles.bpmn.view.TaskTypeEnum" name="com.yworks.bpmn.taskType" value="TASK_TYPE_ABSTRACT"/>
            <y:Property class="java.awt.Color" name="com.yworks.bpmn.icon.fill2" value="#d4d4d4cc"/>
            <y:Property class="java.awt.Color" name="com.yworks.bpmn.icon.fill" value="#ffffffe6"/>
            <y:Property class="com.yworks.yfiles.bpmn.view.BPMNTypeEnum" name="com.yworks.bpmn.type" value="ACTIVITY_TYPE"/>
            <y:Property class="com.yworks.yfiles.bpmn.view.ActivityTypeEnum" name="com.yworks.bpmn.activityType" value="ACTIVITY_TYPE_TASK"/>
          </y:StyleProperties>
        </y:GenericNode>
      </data>
    </node>
    <node id="n8">
      <data key="d4"/>
      <data key="d6">
        <y:GenericNode configuration="com.yworks.bpmn.Activity.withShadow">
          <y:Geometry height="24.0" width="85.0" x="606.0952987670898" y="208.5"/>
          <y:Fill color="#CCFFFF" transparent="false"/>
          <y:BorderStyle color="#99CC00" type="line" width="1.0"/>
          <y:NodeLabel alignment="center" autoSizePolicy="content" fontFamily="Dialog" fontSize="12" fontStyle="plain" hasBackgroundColor="false" hasLineColor="false" height="18.701171875" modelName="custom" textColor="#000000" visible="true" width="67.392578125" x="8.8037109375" y="2.6494140625">192.168.1.2<y:LabelModel>
              <y:SmartNodeLabelModel distance="4.0"/>
            </y:LabelModel>
            <y:ModelParameter>
              <y:SmartNodeLabelModelParameter labelRatioX="0.0" labelRatioY="0.0" nodeRatioX="0.0" nodeRatioY="0.0" offsetX="0.0" offsetY="0.0" upX="0.0" upY="-1.0"/>
            </y:ModelParameter>
          </y:NodeLabel>
          <y:StyleProperties>
            <y:Property class="java.awt.Color" name="com.yworks.bpmn.icon.line.color" value="#000000"/>
            <y:Property class="com.yworks.yfiles.bpmn.view.TaskTypeEnum" name="com.yworks.bpmn.taskType" value="TASK_TYPE_ABSTRACT"/>
            <y:Property class="java.awt.Color" name="com.yworks.bpmn.icon.fill2" value="#d4d4d4cc"/>
            <y:Property class="java.awt.Color" name="com.yworks.bpmn.icon.fill" value="#ffffffe6"/>
            <y:Property class="com.yworks.yfiles.bpmn.view.BPMNTypeEnum" name="com.yworks.bpmn.type" value="ACTIVITY_TYPE"/>
            <y:Property class="com.yworks.yfiles.bpmn.view.ActivityTypeEnum" name="com.yworks.bpmn.activityType" value="ACTIVITY_TYPE_TASK"/>
          </y:StyleProperties>
        </y:GenericNode>
      </data>
    </node>
    <node id="n9">
      <data key="d4"/>
      <data key="d6">
        <y:GenericNode configuration="com.yworks.bpmn.Activity.withShadow">
          <y:Geometry height="24.0" width="85.0" x="266.0" y="403.33999176025395"/>
          <y:Fill color="#CCFFFF" transparent="false"/>
          <y:BorderStyle color="#99CC00" type="line" width="1.0"/>
          <y:NodeLabel alignment="center" autoSizePolicy="content" fontFamily="Dialog" fontSize="12" fontStyle="plain" hasBackgroundColor="false" hasLineColor="false" height="18.701171875" modelName="custom" textColor="#000000" visible="true" width="67.392578125" x="8.8037109375" y="2.6494140625">192.168.1.3<y:LabelModel>
              <y:SmartNodeLabelModel distance="4.0"/>
            </y:LabelModel>
            <y:ModelParameter>
              <y:SmartNodeLabelModelParameter labelRatioX="0.0" labelRatioY="0.0" nodeRatioX="0.0" nodeRatioY="0.0" offsetX="0.0" offsetY="0.0" upX="0.0" upY="-1.0"/>
            </y:ModelParameter>
          </y:NodeLabel>
          <y:StyleProperties>
            <y:Property class="java.awt.Color" name="com.yworks.bpmn.icon.line.color" value="#000000"/>
            <y:Property class="com.yworks.yfiles.bpmn.view.TaskTypeEnum" name="com.yworks.bpmn.taskType" value="TASK_TYPE_ABSTRACT"/>
            <y:Property class="java.awt.Color" name="com.yworks.bpmn.icon.fill2" value="#d4d4d4cc"/>
            <y:Property class="java.awt.Color" name="com.yworks.bpmn.icon.fill" value="#ffffffe6"/>
            <y:Property class="com.yworks.yfiles.bpmn.view.BPMNTypeEnum" name="com.yworks.bpmn.type" value="ACTIVITY_TYPE"/>
            <y:Property class="com.yworks.yfiles.bpmn.view.ActivityTypeEnum" name="com.yworks.bpmn.activityType" value="ACTIVITY_TYPE_TASK"/>
          </y:StyleProperties>
        </y:GenericNode>
      </data>
    </node>
    <node id="n10">
      <data key="d4"/>
      <data key="d6">
        <y:GenericNode configuration="com.yworks.bpmn.Activity.withShadow">
          <y:Geometry height="24.0" width="85.0" x="606.0952987670898" y="402.5"/>
          <y:Fill color="#CCFFFF" transparent="false"/>
          <y:BorderStyle color="#99CC00" type="line" width="1.0"/>
          <y:NodeLabel alignment="center" autoSizePolicy="content" fontFamily="Dialog" fontSize="12" fontStyle="plain" hasBackgroundColor="false" hasLineColor="false" height="18.701171875" modelName="custom" textColor="#000000" visible="true" width="67.392578125" x="8.8037109375" y="2.6494140625">192.168.1.4<y:LabelModel>
              <y:SmartNodeLabelModel distance="4.0"/>
            </y:LabelModel>
            <y:ModelParameter>
              <y:SmartNodeLabelModelParameter labelRatioX="0.0" labelRatioY="0.0" nodeRatioX="0.0" nodeRatioY="0.0" offsetX="0.0" offsetY="0.0" upX="0.0" upY="-1.0"/>
            </y:ModelParameter>
          </y:NodeLabel>
          <y:StyleProperties>
            <y:Property class="java.awt.Color" name="com.yworks.bpmn.icon.line.color" value="#000000"/>
            <y:Property class="com.yworks.yfiles.bpmn.view.TaskTypeEnum" name="com.yworks.bpmn.taskType" value="TASK_TYPE_ABSTRACT"/>
            <y:Property class="java.awt.Color" name="com.yworks.bpmn.icon.fill2" value="#d4d4d4cc"/>
            <y:Property class="java.awt.Color" name="com.yworks.bpmn.icon.fill" value="#ffffffe6"/>
            <y:Property class="com.yworks.yfiles.bpmn.view.BPMNTypeEnum" name="com.yworks.bpmn.type" value="ACTIVITY_TYPE"/>
            <y:Property class="com.yworks.yfiles.bpmn.view.ActivityTypeEnum" name="com.yworks.bpmn.activityType" value="ACTIVITY_TYPE_TASK"/>
          </y:StyleProperties>
        </y:GenericNode>
      </data>
    </node>
    <node id="n11">
      <data key="d6">
        <y:GenericNode configuration="com.yworks.flowchart.process">
          <y:Geometry height="14.399999999999977" width="33.27999999999997" x="461.90764938354494" y="419.18"/>
          <y:Fill color="#E8EEF7" color2="#B7C9E3" transparent="false"/>
          <y:BorderStyle color="#000000" type="line" width="1.0"/>
          <y:NodeLabel alignment="center" autoSizePolicy="content" fontFamily="Dialog" fontSize="12" fontStyle="plain" hasBackgroundColor="false" hasLineColor="false" height="18.701171875" modelName="custom" textColor="#000000" visible="true" width="28.673828125" x="2.3030859374999864" y="-2.1505859375000114">sync<y:LabelModel>
              <y:SmartNodeLabelModel distance="4.0"/>
            </y:LabelModel>
            <y:ModelParameter>
              <y:SmartNodeLabelModelParameter labelRatioX="0.0" labelRatioY="0.0" nodeRatioX="0.0" nodeRatioY="0.0" offsetX="0.0" offsetY="0.0" upX="0.0" upY="-1.0"/>
            </y:ModelParameter>
          </y:NodeLabel>
        </y:GenericNode>
      </data>
    </node>
    <node id="n12">
      <data key="d6">
        <y:GenericNode configuration="com.yworks.flowchart.process">
          <y:Geometry height="14.399999999999977" width="33.27999999999997" x="461.90764938354494" y="158.3849979400635"/>
          <y:Fill color="#E8EEF7" color2="#B7C9E3" transparent="false"/>
          <y:BorderStyle color="#000000" type="line" width="1.0"/>
          <y:NodeLabel alignment="center" autoSizePolicy="content" fontFamily="Dialog" fontSize="12" fontStyle="plain" hasBackgroundColor="false" hasLineColor="false" height="18.701171875" modelName="custom" textColor="#000000" visible="true" width="19.33984375" x="6.970078124999986" y="-2.1505859375000114">vip<y:LabelModel>
              <y:SmartNodeLabelModel distance="4.0"/>
            </y:LabelModel>
            <y:ModelParameter>
              <y:SmartNodeLabelModelParameter labelRatioX="0.0" labelRatioY="0.0" nodeRatioX="0.0" nodeRatioY="0.0" offsetX="0.0" offsetY="0.0" upX="0.0" upY="-1.0"/>
            </y:ModelParameter>
          </y:NodeLabel>
        </y:GenericNode>
      </data>
    </node>
    <edge id="e0" source="n0" target="n3">
      <data key="d10">
        <y:ArcEdge>
          <y:Path sx="0.0" sy="0.0" tx="0.0" ty="0.0">
            <y:Point x="459.24053955078125" y="336.19805908203125"/>
          </y:Path>
          <y:LineStyle color="#000000" type="line" width="1.0"/>
          <y:Arrows source="none" target="none"/>
          <y:Arc height="-29.419696807861328" ratio="-0.4129868149757385" type="fixedRatio"/>
        </y:ArcEdge>
      </data>
    </edge>
    <edge id="e1" source="n1" target="n2">
      <data key="d10">
        <y:ArcEdge>
          <y:Path sx="0.0" sy="0.0" tx="0.0" ty="0.0">
            <y:Point x="496.6473083496094" y="334.80975341796875"/>
          </y:Path>
          <y:LineStyle color="#000000" type="dashed" width="1.0"/>
          <y:Arrows source="none" target="none"/>
          <y:Arc height="27.579757690429688" ratio="0.38715818524360657" type="fixedRatio"/>
        </y:ArcEdge>
      </data>
    </edge>
    <edge id="e2" source="n0" target="n2">
      <data key="d10">
        <y:PolyLineEdge>
          <y:Path sx="0.0" sy="0.0" tx="0.0" ty="0.0"/>
          <y:LineStyle color="#000000" type="line" width="1.0"/>
          <y:Arrows source="none" target="none"/>
          <y:BendStyle smoothed="false"/>
        </y:PolyLineEdge>
      </data>
    </edge>
    <edge id="e3" source="n1" target="n3">
      <data key="d10">
        <y:PolyLineEdge>
          <y:Path sx="0.0" sy="0.0" tx="0.0" ty="0.0"/>
          <y:LineStyle color="#000000" type="dashed" width="1.0"/>
          <y:Arrows source="none" target="none"/>
          <y:BendStyle smoothed="false"/>
        </y:PolyLineEdge>
      </data>
    </edge>
    <edge id="e4" source="n5" target="n0">
      <data key="d10">
        <y:ArcEdge>
          <y:Path sx="0.0" sy="0.0" tx="0.0" ty="0.0">
            <y:Point x="420.5226135253906" y="153.73284912109375"/>
          </y:Path>
          <y:LineStyle color="#000000" type="line" width="1.0"/>
          <y:Arrows source="none" target="none"/>
          <y:Arc height="-6.53120231628418" ratio="-0.15767650306224823" type="fixedRatio"/>
        </y:ArcEdge>
      </data>
    </edge>
    <edge id="e5" source="n5" target="n1">
      <data key="d10">
        <y:ArcEdge>
          <y:Path sx="0.0" sy="0.0" tx="0.0" ty="0.0">
            <y:Point x="536.504150390625" y="154.9996795654297"/>
          </y:Path>
          <y:LineStyle color="#000000" type="dashed" width="1.0"/>
          <y:Arrows source="none" target="none"/>
          <y:Arc height="4.66650915145874" ratio="0.11382509768009186" type="fixedRatio"/>
        </y:ArcEdge>
      </data>
    </edge>
    <edge id="e6" source="n2" target="n3">
      <data key="d10">
        <y:PolyLineEdge>
          <y:Path sx="0.0" sy="4.479999999999961" tx="0.0" ty="4.479999999999961"/>
          <y:LineStyle color="#000000" type="line" width="1.0"/>
          <y:Arrows source="standard" target="none"/>
          <y:BendStyle smoothed="false"/>
        </y:PolyLineEdge>
      </data>
    </edge>
    <edge id="e7" source="n2" target="n3">
      <data key="d10">
        <y:PolyLineEdge>
          <y:Path sx="0.0" sy="10.680000000000007" tx="1.8723506164549235" ty="10.680000000000007"/>
          <y:LineStyle color="#000000" type="line" width="1.0"/>
          <y:Arrows source="none" target="standard"/>
          <y:BendStyle smoothed="false"/>
        </y:PolyLineEdge>
      </data>
    </edge>
  </graph>
  <data key="d7">
    <y:Resources>
      <y:Resource id="1" type="java.awt.image.BufferedImage">iVBORw0KGgoAAAANSUhEUgAAABoAAAAmCAYAAADa8osYAAABX0lEQVR42u2WO26EMBCGOQu32Qrl&#13;
DEg5BMWmpSWJxAXgAlS0VDRbcQPq8H61Xo0VJ2OxNl55Ntoilj6NhdD/2dKA7bA/Go6YtG3L6rom&#13;
BTJ3oqqqyHeBM39EZVnyum0bCThTEhVFweuyLMx1XWPgfczFcXjFmZIoz3Neh2HQ8nY+S6jew5mS&#13;
KMuy76ZoSMCZO9EjUO6IcmhFlF2nFdl23evlt+u0Isqu04r+u+75u25dV/b58a6tmNPpRUI8NxLd&#13;
A7QzxlgE3wCsXFcxSZJIiOeHonmeSTgUTdPEV66rJhyKxnEkweAX1POV21TgUNT3HQmHoq5r+cps&#13;
KvAcP1UYTfPFV2ZTASMRBVrRPSerCUoR3CwpUYrgrkx14Imsm6I0TVkYhiRAllIURZFVuDiTYA5Z&#13;
SlEQBFYiOI/gkg9zyFKKfN+3EokzCeaQpRTFccw8zyMBsm6KKDsOd95O9OhxBUCcP+wD/GvsAAAA&#13;
AElFTkSuQmCC</y:Resource>
      <y:Resource id="2">&lt;?xml version="1.0" encoding="utf-8"?&gt;
&lt;svg version="1.1"
	 xmlns="http://www.w3.org/2000/svg" xmlns:xlink="http://www.w3.org/1999/xlink"
	 x="0px" y="0px" width="68px" height="46px" viewBox="-0.064 -0.075 68 46" enable-background="new -0.064 -0.075 68 46"
	 xml:space="preserve"&gt;
&lt;defs&gt;
&lt;/defs&gt;
&lt;radialGradient id="SVGID_1_" cx="478.8413" cy="1991.2729" r="21.6001" gradientTransform="matrix(1.15 0 0 1 -526.6598 -1982.4023)" gradientUnits="userSpaceOnUse"&gt;
	&lt;stop  offset="0" style="stop-color:#F2F2F2"/&gt;
	&lt;stop  offset="1" style="stop-color:#8D8D8D"/&gt;
&lt;/radialGradient&gt;
&lt;path fill="url(#SVGID_1_)" d="M10.263,1.903c0-0.987,0.807-1.794,1.794-1.794h43.279c0.986,0,1.795,0.807,1.795,1.794v26.978
	c0,0.987-0.809,1.794-1.795,1.794h-43.28c-0.987,0-1.794-0.807-1.794-1.794L10.263,1.903L10.263,1.903z"/&gt;
&lt;path display="none" fill="none" stroke="#3C89C9" stroke-width="0.2185" stroke-linecap="round" stroke-linejoin="round" stroke-miterlimit="10" d="
	M10.263,1.903c0-0.987,0.807-1.794,1.794-1.794h43.279c0.986,0,1.795,0.807,1.795,1.794v26.978c0,0.987-0.809,1.794-1.795,1.794
	h-43.28c-0.987,0-1.794-0.807-1.794-1.794L10.263,1.903L10.263,1.903z"/&gt;
&lt;radialGradient id="SVGID_2_" cx="455.894" cy="1983.9624" r="47.8462" fx="493.5344" fy="1977.5143" gradientTransform="matrix(1.1935 0 0 1 -509.6731 -1982.4023)" gradientUnits="userSpaceOnUse"&gt;
	&lt;stop  offset="0" style="stop-color:#4D4D4D"/&gt;
	&lt;stop  offset="1" style="stop-color:#999999"/&gt;
&lt;/radialGradient&gt;
&lt;path fill="url(#SVGID_2_)" d="M11.18,2.819c0-0.987,0.807-1.794,1.794-1.794h41.649c0.986,0,1.795,0.807,1.795,1.794v24.943
	c0,0.985-0.809,1.794-1.795,1.794H12.974c-0.987,0-1.794-0.809-1.794-1.794V2.819z"/&gt;
&lt;radialGradient id="SVGID_3_" cx="456.8843" cy="1984.0386" r="30.6699" gradientTransform="matrix(1.1923 0 0 1 -510.1314 -1982.4023)" gradientUnits="userSpaceOnUse"&gt;
	&lt;stop  offset="0" style="stop-color:#9CD7FF"/&gt;
	&lt;stop  offset="1" style="stop-color:#3C89C9"/&gt;
&lt;/radialGradient&gt;
&lt;path fill="url(#SVGID_3_)" d="M11.689,3.228c0-0.987,0.807-1.794,1.794-1.794h40.633c0.986,0,1.795,0.807,1.795,1.794v24.126
	c0,0.986-0.809,1.794-1.795,1.794H13.483c-0.987,0-1.794-0.809-1.794-1.794V3.228z"/&gt;
&lt;path opacity="0.24" fill="#F2F2F2" d="M11.689,21.472V3.228c0-0.987,0.807-1.794,1.794-1.794h40.633
	c0.986,0,1.795,0.807,1.795,1.794v9.454c0,0.987-10.518,5.21-18.256,6.795C29.917,21.062,11.689,21.472,11.689,21.472z"/&gt;
&lt;linearGradient id="SVGID_4_" gradientUnits="userSpaceOnUse" x1="131.3501" y1="-212.2612" x2="131.3501" y2="-170.6274" gradientTransform="matrix(1 0 0 -1 -97.6001 -165.0498)"&gt;
	&lt;stop  offset="0" style="stop-color:#4D4D4D"/&gt;
	&lt;stop  offset="0.0667" style="stop-color:#717171"/&gt;
	&lt;stop  offset="0.069" style="stop-color:#757575"/&gt;
	&lt;stop  offset="0.0831" style="stop-color:#8C8C8C"/&gt;
	&lt;stop  offset="0.0996" style="stop-color:#9E9E9E"/&gt;
	&lt;stop  offset="0.1196" style="stop-color:#AAAAAA"/&gt;
	&lt;stop  offset="0.1466" style="stop-color:#B1B1B1"/&gt;
	&lt;stop  offset="0.2121" style="stop-color:#B3B3B3"/&gt;
	&lt;stop  offset="1" style="stop-color:#C5C5C5"/&gt;
&lt;/linearGradient&gt;
&lt;path fill="url(#SVGID_4_)" d="M58.385,32.234c-0.689-0.856-2.154-1.559-3.254-1.559H12c-1.1,0-2.552,0.711-3.227,1.579
	l-7.546,9.717C0,43.55,0.042,43.785,0,44.55v0.125c0.056,0.393,0.311,1.002,1.248,1.002h64.75c0.75,0.002,1.5-0.252,1.5-1.002V44.55
	c0-0.813,0-0.813-1.254-2.559L58.385,32.234z"/&gt;
&lt;path opacity="0.23" fill="#F2F2F2" enable-background="new    " d="M58.385,32.234c-0.689-0.856-2.154-1.559-3.254-1.559H12
	c-1.1,0-2.552,0.711-3.227,1.579l-7.055,9.085l58.098-7.33L58.385,32.234z"/&gt;
&lt;path fill="#6E6E6E" d="M59.75,37.205c0.344,0.431,0.172,0.783-0.377,0.783H8.249c-0.55,0-0.742-0.369-0.427-0.819l2.786-3.986
	c0.315-0.45,1.023-0.819,1.573-0.819h42.729c0.551,0,1.279,0.354,1.623,0.783L59.75,37.205z"/&gt;
&lt;path fill="#6E6E6E" d="M40.43,41.906c0.072,0.217-0.057,0.395-0.285,0.395H26.727c-0.229,0-0.364-0.18-0.3-0.398l0.822-2.826
	c0.064-0.221,0.303-0.399,0.532-0.399h11.167c0.229,0,0.475,0.179,0.547,0.396L40.43,41.906z"/&gt;
&lt;/svg&gt;
</y:Resource>
      <y:Resource id="3">&lt;?xml version="1.0" encoding="utf-8"?&gt;
&lt;svg version="1.1" id="Ebene_1" xmlns="http://www.w3.org/2000/svg" xmlns:xlink="http://www.w3.org/1999/xlink" x="0px" y="0px"
	 width="59px" height="59px" viewBox="0 0 59 59" enable-background="new 0 0 59 59" xml:space="preserve"&gt;
&lt;g&gt;
	
		&lt;linearGradient id="neck_x5F_white_1_" gradientUnits="userSpaceOnUse" x1="13.6323" y1="-1502.7422" x2="14.3617" y2="-1520.2559" gradientTransform="matrix(1 0 0 -1 0.2002 -1487.2285)"&gt;
		&lt;stop  offset="0.2711" style="stop-color:#FFAB4F"/&gt;
		&lt;stop  offset="1" style="stop-color:#FFD28F"/&gt;
	&lt;/linearGradient&gt;
	&lt;path id="neck_x5F_white_19_" fill="url(#neck_x5F_white_1_)" stroke="#FFAB4F" stroke-width="0.5" stroke-miterlimit="10" d="
		M9.639,18.899h9.093v10.115c-0.656,0.186-8.586,0.218-9.093,0.086V18.899z"/&gt;
	
		&lt;linearGradient id="SVGID_1_" gradientUnits="userSpaceOnUse" x1="13.1294" y1="-1499.207" x2="13.75" y2="-1514.1072" gradientTransform="matrix(1 0 0 -1 0.2002 -1487.2285)"&gt;
		&lt;stop  offset="0.2711" style="stop-color:#FFAB4F"/&gt;
		&lt;stop  offset="1" style="stop-color:#FFD28F"/&gt;
	&lt;/linearGradient&gt;
	&lt;path fill="url(#SVGID_1_)" stroke="#ED9135" stroke-width="0.5" stroke-miterlimit="10" d="M24.766,25.612
		c-2.199-2.197-5.477-2.941-6.033-3.055v-3.658H9.639c0,0,0.019,3.452,0,3.435c0,0-3.437,0.499-6.154,3.216
		c-2.796,2.796-3.235,5.835-3.235,5.835c0,0.971,0.788,1.746,1.762,1.746h24.255c0.974,0,1.761-0.777,1.761-1.746
		C28.027,31.384,27.105,27.953,24.766,25.612z"/&gt;
	
		&lt;radialGradient id="face_x5F_white_1_" cx="13.7515" cy="-1500.0908" r="11.7123" fx="11.4666" fy="-1501.3357" gradientTransform="matrix(1 0 0 -1 0.2002 -1487.2285)" gradientUnits="userSpaceOnUse"&gt;
		&lt;stop  offset="0" style="stop-color:#FFD28F"/&gt;
		&lt;stop  offset="1" style="stop-color:#FFAB4F"/&gt;
	&lt;/radialGradient&gt;
	&lt;path id="face_x5F_white_19_" fill="url(#face_x5F_white_1_)" stroke="#ED9135" stroke-width="0.5" stroke-miterlimit="10" d="
		M21.838,11.679c0.043,5.1-3.369,9.26-7.623,9.293C9.964,21.006,6.483,16.899,6.44,11.8c-0.042-5.1,3.37-9.261,7.622-9.294
		C18.314,2.473,21.795,6.579,21.838,11.679z"/&gt;
	
		&lt;linearGradient id="face_highlight_1_" gradientUnits="userSpaceOnUse" x1="4300.0391" y1="8522.0703" x2="4311.8545" y2="8568.7988" gradientTransform="matrix(0.275 0 0 0.2733 -1169.7629 -2324.9595)"&gt;
		&lt;stop  offset="0" style="stop-color:#FFFFFF;stop-opacity:0.24"/&gt;
		&lt;stop  offset="1" style="stop-color:#FFFFFF;stop-opacity:0.16"/&gt;
	&lt;/linearGradient&gt;
	&lt;path id="face_highlight_19_" fill="url(#face_highlight_1_)" d="M13.979,3.166c-3.018,0.023-5.374,2.247-6.394,5.193
		c-0.332,0.96-0.147,2.021,0.49,2.814c1.365,1.699,2.865,3.142,4.73,4.044c1.569,0.759,3.767,1.192,5.946,0.624
		c1.139-0.297,1.994-1.229,2.188-2.383c0.092-0.548,0.146-1.145,0.143-1.777C21.041,6.977,18.137,3.134,13.979,3.166z"/&gt;
	
		&lt;path id="Hair_Female_1_Black_9_" fill="#4B4B4B" stroke="#000000" stroke-width="0.5" stroke-linecap="round" stroke-linejoin="round" d="
		M14.187,0.25c-5.418,0-10.052,3.624-9.61,12.813c0.282,3.281,2.931,6.021,4.683,6.766C7.795,14.344,9.107,7.317,8.967,7.064
		c-0.14-0.252,1.769,3.364,1.769,3.364l1.591-4.155c2.771,2.14,0.197,5.654,0.524,5.528c2.129-0.815,2.67-4.614,2.67-4.614
		s1.364,1.829,1.35,2.752c-0.025,1.781,1.098-3.033,1.098-3.033l0.514,1.016c3.363,4.911,1.842,8.104,0.826,11.391
		c7.834-0.352,6.146-5.24,4.83-9.203C21.795,3.046,19.604,0.25,14.187,0.25z"/&gt;
	
		&lt;linearGradient id="body_1_" gradientUnits="userSpaceOnUse" x1="53.4854" y1="2393.7295" x2="21.2897" y2="2393.7295" gradientTransform="matrix(0.9852 0 0 0.9852 -22.6981 -2330.2188)"&gt;
		&lt;stop  offset="0" style="stop-color:#49AD33"/&gt;
		&lt;stop  offset="1" style="stop-color:#C2DA92"/&gt;
	&lt;/linearGradient&gt;
	&lt;path id="body_63_" fill="url(#body_1_)" stroke="#008D33" stroke-width="0.5" d="M0.25,31.384c0,0.97,0.788,1.747,1.762,1.747
		h24.255c0.974,0,1.761-0.779,1.761-1.747c0,0-0.922-3.431-3.262-5.771c-2.408-2.406-4.123-2.572-4.123-2.572
		c-0.723,3.491-4.277,4.393-6.503,4.393c-2.227,0-5.75-0.994-6.06-4.393c0,0-1.877-0.207-4.594,2.51
		C0.689,28.345,0.25,31.384,0.25,31.384z"/&gt;
	
		&lt;linearGradient id="neck_x5F_white_3_" gradientUnits="userSpaceOnUse" x1="43.8525" y1="-1502.7417" x2="44.5819" y2="-1520.2552" gradientTransform="matrix(1 0 0 -1 0.2002 -1487.2285)"&gt;
		&lt;stop  offset="0.2711" style="stop-color:#FFAB4F"/&gt;
		&lt;stop  offset="1" style="stop-color:#FFD28F"/&gt;
	&lt;/linearGradient&gt;
	&lt;path id="neck_x5F_white_17_" fill="url(#neck_x5F_white_3_)" stroke="#FFAB4F" stroke-width="0.5" stroke-miterlimit="10" d="
		M39.859,18.899h9.094v10.115c-0.656,0.186-8.586,0.218-9.094,0.086V18.899z"/&gt;
	
		&lt;linearGradient id="SVGID_2_" gradientUnits="userSpaceOnUse" x1="43.3506" y1="-1499.2075" x2="43.9712" y2="-1514.1077" gradientTransform="matrix(1 0 0 -1 0.2002 -1487.2285)"&gt;
		&lt;stop  offset="0.2711" style="stop-color:#FFAB4F"/&gt;
		&lt;stop  offset="1" style="stop-color:#FFD28F"/&gt;
	&lt;/linearGradient&gt;
	&lt;path fill="url(#SVGID_2_)" stroke="#ED9135" stroke-width="0.5" stroke-miterlimit="10" d="M54.986,25.612
		c-2.199-2.197-5.478-2.941-6.033-3.055v-3.658h-9.094c0,0,0.02,3.452,0,3.435c0,0-3.438,0.499-6.153,3.216
		c-2.796,2.796-3.235,5.835-3.235,5.835c0,0.971,0.787,1.746,1.762,1.746h24.256c0.974,0,1.761-0.777,1.761-1.746
		C58.248,31.384,57.326,27.953,54.986,25.612z"/&gt;
	
		&lt;radialGradient id="face_x5F_white_3_" cx="43.9727" cy="-1500.0908" r="11.7111" fx="41.6881" fy="-1501.3356" gradientTransform="matrix(1 0 0 -1 0.2002 -1487.2285)" gradientUnits="userSpaceOnUse"&gt;
		&lt;stop  offset="0" style="stop-color:#FFD28F"/&gt;
		&lt;stop  offset="1" style="stop-color:#FFAB4F"/&gt;
	&lt;/radialGradient&gt;
	&lt;path id="face_x5F_white_17_" fill="url(#face_x5F_white_3_)" stroke="#ED9135" stroke-width="0.5" stroke-miterlimit="10" d="
		M52.059,11.679c0.043,5.1-3.369,9.26-7.623,9.293c-4.25,0.034-7.731-4.073-7.774-9.172c-0.042-5.1,3.368-9.261,7.622-9.294
		C48.536,2.473,52.016,6.579,52.059,11.679z"/&gt;
	
		&lt;linearGradient id="face_highlight_3_" gradientUnits="userSpaceOnUse" x1="4409.9326" y1="8522.0703" x2="4421.7476" y2="8568.7969" gradientTransform="matrix(0.275 0 0 0.2733 -1169.7629 -2324.9595)"&gt;
		&lt;stop  offset="0" style="stop-color:#FFFFFF;stop-opacity:0.24"/&gt;
		&lt;stop  offset="1" style="stop-color:#FFFFFF;stop-opacity:0.16"/&gt;
	&lt;/linearGradient&gt;
	&lt;path id="face_highlight_17_" fill="url(#face_highlight_3_)" d="M44.2,3.166c-3.019,0.023-5.374,2.247-6.394,5.193
		c-0.332,0.96-0.147,2.021,0.489,2.814c1.364,1.699,2.864,3.142,4.729,4.044c1.568,0.759,3.768,1.192,5.945,0.624
		c1.139-0.297,1.994-1.229,2.188-2.383c0.092-0.548,0.146-1.145,0.143-1.777C51.262,6.977,48.357,3.134,44.2,3.166z"/&gt;
	
		&lt;path id="hair_x5F_gray_17_" fill="#ECECEC" stroke="#9B9B9B" stroke-width="0.5" stroke-linecap="round" stroke-linejoin="round" d="
		M40.359,6.625c0,0,2.66,3.625,7.5,1.875c1.365-0.281,4.529,0.518,4.529,0.518s-1.828-8.085-8.523-7.646
		c-8.943,0.69-7.615,11.467-7.615,11.467s1.384-0.342,2.518-2.401C39.255,9.553,40.359,6.625,40.359,6.625z"/&gt;
	
		&lt;radialGradient id="collar_x5F_body_2_" cx="37.6602" cy="-1515.813" r="16.2003" gradientTransform="matrix(1 0 0 -1 0.2002 -1487.2285)" gradientUnits="userSpaceOnUse"&gt;
		&lt;stop  offset="0" style="stop-color:#B0E8FF"/&gt;
		&lt;stop  offset="1" style="stop-color:#74AEEE"/&gt;
	&lt;/radialGradient&gt;
	&lt;path id="collar_x5F_body_8_" fill="url(#collar_x5F_body_2_)" stroke="#5491CF" stroke-width="0.5" d="M30.471,31.384
		c0,0.97,0.787,1.747,1.762,1.747h24.256c0.974,0,1.761-0.779,1.761-1.747c0,0-0.922-3.431-3.263-5.771
		c-2.407-2.406-5.623-3.072-5.623-3.072c-0.885,0.827-2.805,1.4-5.03,1.4s-4.146-0.573-5.031-1.4c0,0-2.878,0.293-5.595,3.01
		C30.91,28.345,30.471,31.384,30.471,31.384z"/&gt;
	
		&lt;radialGradient id="collar_x5F_r_2_" cx="45.8311" cy="-1510.8745" r="4.6401" gradientTransform="matrix(1 0 0 -1 0.2002 -1487.2285)" gradientUnits="userSpaceOnUse"&gt;
		&lt;stop  offset="0" style="stop-color:#80CCFF"/&gt;
		&lt;stop  offset="1" style="stop-color:#74AEEE"/&gt;
	&lt;/radialGradient&gt;
	&lt;path id="collar_x5F_r_8_" fill="url(#collar_x5F_r_2_)" stroke="#5491CF" stroke-width="0.5" d="M49.301,20.69
		c0,0-0.287,1.185-1.506,2.221c-1.055,0.897-2.893,1.036-2.893,1.036l1.986,3.108c0,0,1.479-0.818,2.504-1.924
		c0.961-1.036,0.686-2.74,0.686-2.74L49.301,20.69z"/&gt;
	
		&lt;radialGradient id="collar_x5F_l_2_" cx="39.6494" cy="-1510.896" r="4.6426" gradientTransform="matrix(1 0 0 -1 0.2002 -1487.2285)" gradientUnits="userSpaceOnUse"&gt;
		&lt;stop  offset="0" style="stop-color:#80CCFF"/&gt;
		&lt;stop  offset="1" style="stop-color:#74AEEE"/&gt;
	&lt;/radialGradient&gt;
	&lt;path id="collar_x5F_l_8_" fill="url(#collar_x5F_l_2_)" stroke="#5491CF" stroke-width="0.5" d="M39.536,20.711
		c0,0,0.288,1.185,1.506,2.221c1.056,0.896,2.894,1.036,2.894,1.036l-1.987,3.108c0,0-1.479-0.818-2.505-1.925
		c-0.961-1.036-0.685-2.74-0.685-2.74L39.536,20.711z"/&gt;
	
		&lt;radialGradient id="Knob2_2_" cx="44.0645" cy="-742.6421" r="0.4846" gradientTransform="matrix(1 0 0 -1 0.1201 -714.5371)" gradientUnits="userSpaceOnUse"&gt;
		&lt;stop  offset="0" style="stop-color:#80CCFF"/&gt;
		&lt;stop  offset="1" style="stop-color:#74AEEE"/&gt;
	&lt;/radialGradient&gt;
	&lt;circle id="Knob2_8_" fill="url(#Knob2_2_)" stroke="#5491CF" stroke-width="0.5" cx="44.35" cy="28.127" r="0.292"/&gt;
	
		&lt;radialGradient id="Knob1_2_" cx="44.083" cy="-745.7642" r="0.4847" gradientTransform="matrix(1 0 0 -1 0.1201 -714.5371)" gradientUnits="userSpaceOnUse"&gt;
		&lt;stop  offset="0" style="stop-color:#80CCFF"/&gt;
		&lt;stop  offset="1" style="stop-color:#74AEEE"/&gt;
	&lt;/radialGradient&gt;
	&lt;circle id="Knob1_8_" fill="url(#Knob1_2_)" stroke="#5491CF" stroke-width="0.5" cx="44.369" cy="31.25" r="0.292"/&gt;
	
		&lt;radialGradient id="jacket_x5F_body_1_" cx="36.7842" cy="-1515.3755" r="20.459" gradientTransform="matrix(1 0 0 -1 0.2002 -1487.2285)" gradientUnits="userSpaceOnUse"&gt;
		&lt;stop  offset="0" style="stop-color:#D0D0D0"/&gt;
		&lt;stop  offset="1" style="stop-color:#9B9B9B"/&gt;
	&lt;/radialGradient&gt;
	
		&lt;path id="jacket_x5F_body_8_" fill="url(#jacket_x5F_body_1_)" stroke="#4B4B4B" stroke-width="0.5" stroke-linecap="round" stroke-linejoin="round" d="
		M54.986,25.612c-2.217-2.217-5.111-2.955-5.557-3.059l-2.695,10.572h-4.43L39.686,22.84c-0.145-0.096-0.271-0.196-0.385-0.301
		c0,0-2.877,0.293-5.595,3.01c-2.796,2.796-3.233,5.835-3.233,5.835c0,0.97,0.786,1.747,1.76,1.747h24.256
		c0.975,0,1.761-0.779,1.761-1.747C58.248,31.384,57.326,27.953,54.986,25.612z"/&gt;
	
		&lt;polygon id="jacket_x5F_r_8_" fill="#9B9B9B" stroke="#4B4B4B" stroke-width="0.5" stroke-linecap="round" stroke-linejoin="round" points="
		49.688,21.038 51.305,23.187 50.615,27.835 48.914,28.25 49.547,29.563 47.509,33.126 46.734,33.126 	"/&gt;
	
		&lt;polygon id="jacket_x5F_l_8_" fill="#B2B2B2" stroke="#4B4B4B" stroke-width="0.5" stroke-linecap="round" stroke-linejoin="round" points="
		39.354,21.038 37.734,23.187 38.426,27.835 40.127,28.25 39.493,29.563 41.531,33.126 42.307,33.126 	"/&gt;
	&lt;path id="path5135_8_" fill="#D54A30" stroke="#B51A19" stroke-width="0.5" d="M43.936,27.61c0,0-0.926,1.028-1.041,3.271
		c-0.115,2.244,0,2.244,0,2.244h3.273c0,0,0.115,0.031-0.077-2.182c-0.2-2.302-1.194-3.334-1.194-3.334L43.936,27.61L43.936,27.61z"
		/&gt;
	&lt;path id="path5131_8_" fill="#D54A30" stroke="#B51A19" stroke-width="0.5" d="M44.377,24.34h0.063l1.275,2.001
		c0.258,0.477-0.604,0.898-0.729,1.274l-1.139-0.008c-0.121-0.38-1.129-0.683-0.738-1.292L44.377,24.34z"/&gt;
	
		&lt;linearGradient id="neck_x5F_white_4_" gradientUnits="userSpaceOnUse" x1="43.6328" y1="-1527.7417" x2="44.3621" y2="-1545.2545" gradientTransform="matrix(1 0 0 -1 0.2002 -1487.2285)"&gt;
		&lt;stop  offset="0.2711" style="stop-color:#FFAB4F"/&gt;
		&lt;stop  offset="1" style="stop-color:#FFD28F"/&gt;
	&lt;/linearGradient&gt;
	&lt;path id="neck_x5F_white_11_" fill="url(#neck_x5F_white_4_)" stroke="#FFAB4F" stroke-width="0.5" stroke-miterlimit="10" d="
		M39.639,43.898h9.094v10.115c-0.655,0.187-8.586,0.219-9.094,0.086V43.898z"/&gt;
	
		&lt;linearGradient id="SVGID_3_" gradientUnits="userSpaceOnUse" x1="43.1309" y1="-1524.2065" x2="43.7515" y2="-1539.1072" gradientTransform="matrix(1 0 0 -1 0.2002 -1487.2285)"&gt;
		&lt;stop  offset="0.2711" style="stop-color:#FFAB4F"/&gt;
		&lt;stop  offset="1" style="stop-color:#FFD28F"/&gt;
	&lt;/linearGradient&gt;
	&lt;path fill="url(#SVGID_3_)" stroke="#ED9135" stroke-width="0.5" stroke-miterlimit="10" d="M54.766,50.611
		c-2.199-2.196-5.477-2.94-6.033-3.055v-3.658h-9.094c0,0,0.021,3.453,0,3.436c0,0-3.437,0.499-6.152,3.216
		c-2.797,2.796-3.235,5.835-3.235,5.835c0,0.971,0.787,1.746,1.763,1.746h24.254c0.975,0,1.762-0.777,1.762-1.746
		C58.027,56.384,57.105,52.953,54.766,50.611z"/&gt;
	
		&lt;radialGradient id="face_x5F_white_4_" cx="43.752" cy="-1525.0908" r="11.7114" fx="41.4673" fy="-1526.3356" gradientTransform="matrix(1 0 0 -1 0.2002 -1487.2285)" gradientUnits="userSpaceOnUse"&gt;
		&lt;stop  offset="0" style="stop-color:#FFD28F"/&gt;
		&lt;stop  offset="1" style="stop-color:#FFAB4F"/&gt;
	&lt;/radialGradient&gt;
	&lt;path id="face_x5F_white_11_" fill="url(#face_x5F_white_4_)" stroke="#ED9135" stroke-width="0.5" stroke-miterlimit="10" d="
		M51.838,36.68c0.043,5.1-3.369,9.26-7.623,9.293c-4.251,0.033-7.732-4.074-7.775-9.173c-0.041-5.1,3.369-9.261,7.623-9.294
		C48.314,27.473,51.795,31.579,51.838,36.68z"/&gt;
	
		&lt;linearGradient id="face_highlight_4_" gradientUnits="userSpaceOnUse" x1="4409.1299" y1="8613.5469" x2="4420.9448" y2="8660.2725" gradientTransform="matrix(0.275 0 0 0.2733 -1169.7629 -2324.9595)"&gt;
		&lt;stop  offset="0" style="stop-color:#FFFFFF;stop-opacity:0.24"/&gt;
		&lt;stop  offset="1" style="stop-color:#FFFFFF;stop-opacity:0.16"/&gt;
	&lt;/linearGradient&gt;
	&lt;path id="face_highlight_11_" fill="url(#face_highlight_4_)" d="M43.979,28.166c-3.018,0.023-5.373,2.247-6.394,5.193
		c-0.332,0.959-0.147,2.021,0.49,2.813c1.364,1.699,2.864,3.142,4.729,4.044c1.568,0.76,3.768,1.192,5.945,0.624
		c1.139-0.297,1.994-1.229,2.188-2.383c0.092-0.548,0.146-1.146,0.144-1.776C51.041,31.977,48.137,28.134,43.979,28.166z"/&gt;
	&lt;path fill="#CC9869" stroke="#99724F" stroke-width="0.5" stroke-linecap="round" stroke-linejoin="round" d="M46.107,29.969
		c0,0,2.845,1.375,3.845,4.062c1.052,2.826,2.062,4.117,2.095,4c0.938-3.395,0.531-10.718-5.086-10.792
		c-10.229-3.832-12.79,5.98-11.947,9.824c0.539,2.457,1.117,3.344,1.971,4.041C36.982,41.104,37.514,33.781,46.107,29.969z"/&gt;
	
		&lt;linearGradient id="body_2_" gradientUnits="userSpaceOnUse" x1="83.9365" y1="2419.1064" x2="51.7404" y2="2419.1064" gradientTransform="matrix(0.9852 0 0 0.9852 -22.6981 -2330.2188)"&gt;
		&lt;stop  offset="0" style="stop-color:#49AD33"/&gt;
		&lt;stop  offset="1" style="stop-color:#C2DA92"/&gt;
	&lt;/linearGradient&gt;
	&lt;path id="body_35_" fill="url(#body_2_)" stroke="#008D33" stroke-width="0.5" d="M30.25,56.384c0,0.97,0.787,1.747,1.762,1.747
		h24.256c0.974,0,1.76-0.779,1.76-1.747c0,0-0.922-3.431-3.262-5.771c-2.408-2.406-4.123-2.572-4.123-2.572
		c-0.723,3.49-4.276,4.393-6.504,4.393c-2.227,0-5.75-0.994-6.059-4.393c0,0-1.878-0.207-4.596,2.51
		C30.689,53.346,30.25,56.384,30.25,56.384z"/&gt;
	
		&lt;radialGradient id="neck_x5F_white_5_" cx="14.0952" cy="-1534.9302" r="5.7236" fx="12.9786" fy="-1535.5386" gradientTransform="matrix(1 0 0 -1 0.2002 -1487.2285)" gradientUnits="userSpaceOnUse"&gt;
		&lt;stop  offset="0" style="stop-color:#B38E5D"/&gt;
		&lt;stop  offset="1" style="stop-color:#805126"/&gt;
	&lt;/radialGradient&gt;
	&lt;path id="neck_x5F_white_2_" fill="url(#neck_x5F_white_5_)" stroke="#5B453B" stroke-width="0.5" stroke-miterlimit="10" d="
		M9.859,43.898h9.094v6.615c-0.656,0.187-8.586,0.219-9.094,0.086V43.898z"/&gt;
	
		&lt;radialGradient id="SVGID_4_" cx="13.8213" cy="-1539.1084" r="15.5272" fx="10.7923" fy="-1540.7589" gradientTransform="matrix(1 0 0 -1 0.2002 -1487.2285)" gradientUnits="userSpaceOnUse"&gt;
		&lt;stop  offset="0" style="stop-color:#B38E5D"/&gt;
		&lt;stop  offset="1" style="stop-color:#805126"/&gt;
	&lt;/radialGradient&gt;
	&lt;path fill="url(#SVGID_4_)" stroke="#5B453B" stroke-width="0.5" stroke-miterlimit="10" d="M24.986,50.611
		c-2.199-2.196-5.477-2.94-6.033-3.055v-3.658H9.859c0,0,0.02,3.453,0,3.436c0,0-3.437,0.499-6.153,3.216
		c-2.796,2.796-3.235,5.835-3.235,5.835c0,0.971,0.787,1.746,1.762,1.746h24.255c0.974,0,1.761-0.777,1.761-1.746
		C28.248,56.384,27.326,52.953,24.986,50.611z"/&gt;
	
		&lt;radialGradient id="face_x5F_white_5_" cx="13.9722" cy="-1525.0908" r="11.7123" fx="11.6873" fy="-1526.3357" gradientTransform="matrix(1 0 0 -1 0.2002 -1487.2285)" gradientUnits="userSpaceOnUse"&gt;
		&lt;stop  offset="0" style="stop-color:#B38E5D"/&gt;
		&lt;stop  offset="1" style="stop-color:#805126"/&gt;
	&lt;/radialGradient&gt;
	&lt;path id="face_x5F_white_2_" fill="url(#face_x5F_white_5_)" stroke="#5B453B" stroke-width="0.5" stroke-miterlimit="10" d="
		M22.059,36.68c0.043,5.1-3.369,9.26-7.623,9.293c-4.251,0.033-7.732-4.074-7.775-9.173c-0.042-5.1,3.369-9.261,7.622-9.294
		C18.536,27.473,22.016,31.579,22.059,36.68z"/&gt;
	
		&lt;linearGradient id="face_highlight_5_" gradientUnits="userSpaceOnUse" x1="4300.8428" y1="8613.5449" x2="4312.6582" y2="8660.2734" gradientTransform="matrix(0.275 0 0 0.2733 -1169.7629 -2324.9595)"&gt;
		&lt;stop  offset="0" style="stop-color:#FFFFFF;stop-opacity:0.42"/&gt;
		&lt;stop  offset="1" style="stop-color:#FFFFFF;stop-opacity:0.12"/&gt;
	&lt;/linearGradient&gt;
	&lt;path id="face_highlight_2_" fill="url(#face_highlight_5_)" d="M14.2,28.166c-3.018,0.023-5.374,2.247-6.394,5.193
		c-0.332,0.959-0.147,2.021,0.49,2.813c1.364,1.699,2.864,3.142,4.73,4.044c1.568,0.76,3.767,1.192,5.945,0.624
		c1.139-0.297,1.994-1.229,2.188-2.383c0.092-0.548,0.146-1.146,0.143-1.776C21.262,31.977,18.357,28.134,14.2,28.166z"/&gt;
	
		&lt;path id="Hair_Young_Black_1_" fill="#4B4B4B" stroke="#000000" stroke-width="0.5" stroke-linecap="round" stroke-linejoin="round" d="
		M10.359,31.625c1.709,2.166,4.667,3.459,4.667,3.459l-0.708-1.75c0,0,3.547,2.346,4.041,2.166c0.484-0.1-0.541-1.902-0.541-1.902
		s1.568,0.896,2.428,1.983c0.9,1.14,2.143,1.752,2.143,1.752s1.346-10.974-8.523-10.961C4.359,26.354,6.25,38.839,6.25,38.839
		L7.568,33.5c0,0,0.457,2.879,0.699,2.438C9.151,32.605,9.651,30.75,10.359,31.625z"/&gt;
	
		&lt;radialGradient id="collar_x5F_body_3_" cx="7.6602" cy="-1540.813" r="16.2003" gradientTransform="matrix(1 0 0 -1 0.2002 -1487.2285)" gradientUnits="userSpaceOnUse"&gt;
		&lt;stop  offset="0" style="stop-color:#B0E8FF"/&gt;
		&lt;stop  offset="1" style="stop-color:#74AEEE"/&gt;
	&lt;/radialGradient&gt;
	&lt;path id="collar_x5F_body_1_" fill="url(#collar_x5F_body_3_)" stroke="#5491CF" stroke-width="0.5" d="M0.471,56.384
		c0,0.97,0.787,1.747,1.762,1.747h24.255c0.974,0,1.761-0.779,1.761-1.747c0,0-0.922-3.431-3.262-5.771
		c-2.408-2.406-5.623-3.072-5.623-3.072c-0.885,0.827-2.805,1.4-5.031,1.4s-4.146-0.573-5.031-1.4c0,0-2.878,0.293-5.595,3.01
		C0.91,53.346,0.471,56.384,0.471,56.384z"/&gt;
	
		&lt;radialGradient id="collar_x5F_r_3_" cx="15.8306" cy="-1535.874" r="4.6412" gradientTransform="matrix(1 0 0 -1 0.2002 -1487.2285)" gradientUnits="userSpaceOnUse"&gt;
		&lt;stop  offset="0" style="stop-color:#80CCFF"/&gt;
		&lt;stop  offset="1" style="stop-color:#74AEEE"/&gt;
	&lt;/radialGradient&gt;
	&lt;path id="collar_x5F_r_1_" fill="url(#collar_x5F_r_3_)" stroke="#5491CF" stroke-width="0.5" d="M19.301,45.689
		c0,0-0.287,1.186-1.506,2.222c-1.055,0.897-2.893,1.036-2.893,1.036l1.986,3.107c0,0,1.479-0.818,2.504-1.924
		c0.961-1.035,0.686-2.74,0.686-2.74L19.301,45.689z"/&gt;
	
		&lt;radialGradient id="collar_x5F_l_3_" cx="9.6494" cy="-1535.896" r="4.6422" gradientTransform="matrix(1 0 0 -1 0.2002 -1487.2285)" gradientUnits="userSpaceOnUse"&gt;
		&lt;stop  offset="0" style="stop-color:#80CCFF"/&gt;
		&lt;stop  offset="1" style="stop-color:#74AEEE"/&gt;
	&lt;/radialGradient&gt;
	&lt;path id="collar_x5F_l_1_" fill="url(#collar_x5F_l_3_)" stroke="#5491CF" stroke-width="0.5" d="M9.536,45.711
		c0,0,0.288,1.186,1.506,2.221c1.055,0.896,2.893,1.037,2.893,1.037l-1.987,3.107c0,0-1.479-0.818-2.504-1.926
		c-0.961-1.035-0.685-2.739-0.685-2.739L9.536,45.711z"/&gt;
	
		&lt;radialGradient id="Knob2_3_" cx="14.0645" cy="-767.6421" r="0.4842" gradientTransform="matrix(1 0 0 -1 0.1201 -714.5371)" gradientUnits="userSpaceOnUse"&gt;
		&lt;stop  offset="0" style="stop-color:#80CCFF"/&gt;
		&lt;stop  offset="1" style="stop-color:#74AEEE"/&gt;
	&lt;/radialGradient&gt;
	&lt;circle id="Knob2_1_" fill="url(#Knob2_3_)" stroke="#5491CF" stroke-width="0.5" cx="14.35" cy="53.127" r="0.292"/&gt;
	
		&lt;radialGradient id="Knob1_3_" cx="14.0835" cy="-770.7642" r="0.4844" gradientTransform="matrix(1 0 0 -1 0.1201 -714.5371)" gradientUnits="userSpaceOnUse"&gt;
		&lt;stop  offset="0" style="stop-color:#80CCFF"/&gt;
		&lt;stop  offset="1" style="stop-color:#74AEEE"/&gt;
	&lt;/radialGradient&gt;
	&lt;circle id="Knob1_1_" fill="url(#Knob1_3_)" stroke="#5491CF" stroke-width="0.5" cx="14.369" cy="56.25" r="0.292"/&gt;
	&lt;path id="path5135_1_" fill="#D54A30" stroke="#B51A19" stroke-width="0.5" d="M13.935,52.609c0,0-0.925,1.029-1.04,3.271
		c-0.115,2.244,0,2.244,0,2.244h3.273c0,0,0.115,0.031-0.077-2.182c-0.2-2.303-1.194-3.334-1.194-3.334H13.935L13.935,52.609z"/&gt;
	&lt;path id="path5131_1_" fill="#D54A30" stroke="#B51A19" stroke-width="0.5" d="M14.377,49.34h0.062l1.276,2.001
		c0.258,0.478-0.604,0.897-0.728,1.274l-1.14-0.008c-0.121-0.381-1.128-0.684-0.738-1.293L14.377,49.34z"/&gt;
&lt;/g&gt;
&lt;/svg&gt;
</y:Resource>
    </y:Resources>
  </data>
</graphml>
